Tareas/Tarea.D 1/Alarma ejemplo 1-20200817/Alarma_ejemplo_1/alarma.vcd
$date
	Thu Aug 20 21:18:23 2020
$end
$version
	Icarus Verilog
$end
$timescale
	100ps
$end
$scope module BancoPruebas $end
$var wire 1 ! sPrta $end
$var wire 1 " sLuz $end
$var wire 1 # sIgn $end
$var wire 1 $ sAlr_estr $end
$var wire 1 % sAlr_cond $end
$scope module a_cond $end
$var wire 1 ! sPrta $end
$var wire 1 " sLuz $end
$var wire 1 # sIgn $end
$var reg 1 % sAlr $end
$upscope $end
$scope module a_estr $end
$var wire 1 $ sAlr $end
$var wire 1 & x $end
$var wire 1 ! sPrta $end
$var wire 1 " sLuz $end
$var wire 1 # sIgn $end
$upscope $end
$scope module probador_ $end
$var wire 1 % sAlr_cond $end
$var wire 1 $ sAlr_estr $end
$var reg 1 ' clk $end
$var reg 1 # sIgn $end
$var reg 1 " sLuz $end
$var reg 1 ! sPrta $end
$upscope $end
$upscope $end
$enddefinitions $end
#0
$dumpvars
0'
x&
0%
x$
0#
0"
0!
$end
#10
1&
0$
#20
1#
1'
#30
0&
#40
0'
#60
1!
0#
1'
#70
1&
#80
0'
#100
1#
1'
#110
0&
#120
0'
#140
1"
0!
0#
1'
#150
1&
#160
0'
#180
1#
1'
#190
0&
#200
0'
#220
1%
1!
0#
1'
#230
1&
#240
0'
1$
#260
0%
1#
1'
#270
0&
#280
0'
0$
#300
0"
0!
0#
1'
#310
1&
