Tareas/Mux_8x23/Mux.vcd
$date
	Tue Nov  3 13:00:34 2020
$end
$version
	Icarus Verilog
$end
$timescale
	100ps
$end
$scope module BUF $end
$var wire 1 ! A $end
$var wire 1 " Y $end
$upscope $end
$scope module BancoPrueba_Mux $end
$var wire 1 # valid_out_Estruc $end
$var wire 1 $ valid_out_8x32 $end
$var wire 1 % valid_in_8x32 $end
$var wire 2 & selector_clk_4f [1:0] $end
$var wire 1 ' reset_L $end
$var wire 32 ( data_out_8x32_Estruc [31:0] $end
$var wire 32 ) data_out_8x32 [31:0] $end
$var wire 8 * data_in_8x32 [7:0] $end
$var wire 1 + clk_4f $end
$scope module Demux_8x32_Estruc_insta $end
$var wire 1 # valid_out_Estruc $end
$var wire 1 % valid_in_8x32 $end
$var wire 2 , selector_clk_4f [1:0] $end
$var wire 1 ' reset_L $end
$var wire 32 - data_out_8x32_Estruc [31:0] $end
$var wire 8 . data_in_8x32 [7:0] $end
$var wire 1 + clk_4f $end
$var wire 1 / _078_ $end
$var wire 1 0 _077_ $end
$var wire 1 1 _076_ $end
$var wire 1 2 _075_ $end
$var wire 1 3 _074_ $end
$var wire 1 4 _073_ $end
$var wire 1 5 _072_ $end
$var wire 1 6 _071_ $end
$var wire 1 7 _070_ $end
$var wire 1 8 _069_ $end
$var wire 1 9 _068_ $end
$var wire 1 : _067_ $end
$var wire 1 ; _066_ $end
$var wire 1 < _065_ $end
$var wire 1 = _064_ $end
$var wire 1 > _063_ $end
$var wire 1 ? _062_ $end
$var wire 1 @ _061_ $end
$var wire 1 A _060_ $end
$var wire 1 B _059_ $end
$var wire 1 C _058_ $end
$var wire 1 D _057_ $end
$var wire 1 E _056_ $end
$var wire 1 F _055_ $end
$var wire 1 G _054_ $end
$var wire 1 H _053_ $end
$var wire 1 I _052_ $end
$var wire 1 J _051_ $end
$var wire 1 K _050_ $end
$var wire 1 L _049_ $end
$var wire 1 M _048_ $end
$var wire 1 N _047_ $end
$var wire 1 O _046_ $end
$var wire 1 P _045_ $end
$var wire 1 Q _044_ $end
$var wire 1 R _043_ $end
$var wire 1 S _042_ $end
$var wire 1 T _041_ $end
$var wire 1 U _040_ $end
$var wire 1 V _039_ $end
$var wire 1 W _038_ $end
$var wire 1 X _037_ $end
$var wire 1 Y _036_ $end
$var wire 1 Z _035_ $end
$var wire 1 [ _034_ $end
$var wire 1 \ _033_ $end
$var wire 1 ] _032_ $end
$var wire 1 ^ _031_ $end
$var wire 1 _ _030_ $end
$var wire 1 ` _029_ $end
$var wire 1 a _028_ $end
$var wire 1 b _027_ $end
$var wire 1 c _026_ $end
$var wire 1 d _025_ $end
$var wire 1 e _024_ $end
$var wire 1 f _023_ $end
$var wire 1 g _022_ $end
$var wire 1 h _021_ $end
$var wire 1 i _020_ $end
$var wire 1 j _019_ $end
$var wire 1 k _018_ $end
$var wire 1 l _017_ $end
$var wire 1 m _016_ $end
$var wire 1 n _015_ $end
$var wire 1 o _014_ $end
$var wire 1 p _013_ $end
$var wire 1 q _012_ $end
$var wire 1 r _011_ $end
$var wire 1 s _010_ $end
$var wire 1 t _009_ $end
$var wire 1 u _008_ $end
$var wire 1 v _007_ $end
$var wire 1 w _006_ $end
$var wire 1 x _005_ $end
$var wire 1 y _004_ $end
$var wire 1 z _003_ $end
$var wire 1 { _002_ $end
$var wire 1 | _001_ $end
$var wire 32 } _000_ [31:0] $end
$scope module _079_ $end
$var wire 1 ~ A $end
$var wire 1 @ Y $end
$upscope $end
$scope module _080_ $end
$var wire 1 !" A $end
$var wire 1 ? Y $end
$upscope $end
$scope module _081_ $end
$var wire 1 "" A $end
$var wire 1 #" B $end
$var wire 1 > Y $end
$upscope $end
$scope module _082_ $end
$var wire 1 > A $end
$var wire 1 = Y $end
$upscope $end
$scope module _083_ $end
$var wire 1 < Y $end
$var wire 1 ' B $end
$var wire 1 % A $end
$upscope $end
$scope module _084_ $end
$var wire 1 < A $end
$var wire 1 ; Y $end
$upscope $end
$scope module _085_ $end
$var wire 1 = A $end
$var wire 1 < B $end
$var wire 1 : Y $end
$upscope $end
$scope module _086_ $end
$var wire 1 > A $end
$var wire 1 ; B $end
$var wire 1 9 Y $end
$upscope $end
$scope module _087_ $end
$var wire 1 $" A $end
$var wire 1 : B $end
$var wire 1 8 Y $end
$upscope $end
$scope module _088_ $end
$var wire 1 %" A $end
$var wire 1 9 B $end
$var wire 1 7 Y $end
$upscope $end
$scope module _089_ $end
$var wire 1 8 A $end
$var wire 1 7 B $end
$var wire 1 &" Y $end
$upscope $end
$scope module _090_ $end
$var wire 1 '" A $end
$var wire 1 : B $end
$var wire 1 6 Y $end
$upscope $end
$scope module _091_ $end
$var wire 1 (" A $end
$var wire 1 9 B $end
$var wire 1 5 Y $end
$upscope $end
$scope module _092_ $end
$var wire 1 6 A $end
$var wire 1 5 B $end
$var wire 1 )" Y $end
$upscope $end
$scope module _093_ $end
$var wire 1 *" A $end
$var wire 1 : B $end
$var wire 1 4 Y $end
$upscope $end
$scope module _094_ $end
$var wire 1 +" A $end
$var wire 1 9 B $end
$var wire 1 3 Y $end
$upscope $end
$scope module _095_ $end
$var wire 1 4 A $end
$var wire 1 3 B $end
$var wire 1 ," Y $end
$upscope $end
$scope module _096_ $end
$var wire 1 -" A $end
$var wire 1 : B $end
$var wire 1 2 Y $end
$upscope $end
$scope module _097_ $end
$var wire 1 ." A $end
$var wire 1 9 B $end
$var wire 1 1 Y $end
$upscope $end
$scope module _098_ $end
$var wire 1 2 A $end
$var wire 1 1 B $end
$var wire 1 /" Y $end
$upscope $end
$scope module _099_ $end
$var wire 1 0" A $end
$var wire 1 : B $end
$var wire 1 0 Y $end
$upscope $end
$scope module _100_ $end
$var wire 1 1" A $end
$var wire 1 9 B $end
$var wire 1 / Y $end
$upscope $end
$scope module _101_ $end
$var wire 1 0 A $end
$var wire 1 / B $end
$var wire 1 2" Y $end
$upscope $end
$scope module _102_ $end
$var wire 1 3" A $end
$var wire 1 : B $end
$var wire 1 | Y $end
$upscope $end
$scope module _103_ $end
$var wire 1 4" A $end
$var wire 1 9 B $end
$var wire 1 { Y $end
$upscope $end
$scope module _104_ $end
$var wire 1 | A $end
$var wire 1 { B $end
$var wire 1 5" Y $end
$upscope $end
$scope module _105_ $end
$var wire 1 6" A $end
$var wire 1 : B $end
$var wire 1 z Y $end
$upscope $end
$scope module _106_ $end
$var wire 1 7" A $end
$var wire 1 9 B $end
$var wire 1 y Y $end
$upscope $end
$scope module _107_ $end
$var wire 1 z A $end
$var wire 1 y B $end
$var wire 1 8" Y $end
$upscope $end
$scope module _108_ $end
$var wire 1 9" A $end
$var wire 1 : B $end
$var wire 1 x Y $end
$upscope $end
$scope module _109_ $end
$var wire 1 :" A $end
$var wire 1 9 B $end
$var wire 1 w Y $end
$upscope $end
$scope module _110_ $end
$var wire 1 x A $end
$var wire 1 w B $end
$var wire 1 ;" Y $end
$upscope $end
$scope module _111_ $end
$var wire 1 @ A $end
$var wire 1 ? B $end
$var wire 1 v Y $end
$upscope $end
$scope module _112_ $end
$var wire 1 <" A $end
$var wire 1 =" B $end
$var wire 1 u Y $end
$upscope $end
$scope module _113_ $end
$var wire 1 >" A $end
$var wire 1 v B $end
$var wire 1 t Y $end
$upscope $end
$scope module _114_ $end
$var wire 1 ?" A $end
$var wire 1 u B $end
$var wire 1 s Y $end
$upscope $end
$scope module _115_ $end
$var wire 1 t A $end
$var wire 1 s B $end
$var wire 1 @" Y $end
$upscope $end
$scope module _116_ $end
$var wire 1 A" A $end
$var wire 1 v B $end
$var wire 1 r Y $end
$upscope $end
$scope module _117_ $end
$var wire 1 B" A $end
$var wire 1 u B $end
$var wire 1 q Y $end
$upscope $end
$scope module _118_ $end
$var wire 1 r A $end
$var wire 1 q B $end
$var wire 1 C" Y $end
$upscope $end
$scope module _119_ $end
$var wire 1 D" A $end
$var wire 1 v B $end
$var wire 1 p Y $end
$upscope $end
$scope module _120_ $end
$var wire 1 E" A $end
$var wire 1 u B $end
$var wire 1 o Y $end
$upscope $end
$scope module _121_ $end
$var wire 1 p A $end
$var wire 1 o B $end
$var wire 1 F" Y $end
$upscope $end
$scope module _122_ $end
$var wire 1 G" A $end
$var wire 1 v B $end
$var wire 1 n Y $end
$upscope $end
$scope module _123_ $end
$var wire 1 H" A $end
$var wire 1 u B $end
$var wire 1 m Y $end
$upscope $end
$scope module _124_ $end
$var wire 1 n A $end
$var wire 1 m B $end
$var wire 1 I" Y $end
$upscope $end
$scope module _125_ $end
$var wire 1 J" A $end
$var wire 1 v B $end
$var wire 1 l Y $end
$upscope $end
$scope module _126_ $end
$var wire 1 K" A $end
$var wire 1 u B $end
$var wire 1 k Y $end
$upscope $end
$scope module _127_ $end
$var wire 1 l A $end
$var wire 1 k B $end
$var wire 1 L" Y $end
$upscope $end
$scope module _128_ $end
$var wire 1 M" A $end
$var wire 1 v B $end
$var wire 1 j Y $end
$upscope $end
$scope module _129_ $end
$var wire 1 N" A $end
$var wire 1 u B $end
$var wire 1 i Y $end
$upscope $end
$scope module _130_ $end
$var wire 1 j A $end
$var wire 1 i B $end
$var wire 1 O" Y $end
$upscope $end
$scope module _131_ $end
$var wire 1 P" A $end
$var wire 1 v B $end
$var wire 1 h Y $end
$upscope $end
$scope module _132_ $end
$var wire 1 Q" A $end
$var wire 1 u B $end
$var wire 1 g Y $end
$upscope $end
$scope module _133_ $end
$var wire 1 h A $end
$var wire 1 g B $end
$var wire 1 R" Y $end
$upscope $end
$scope module _134_ $end
$var wire 1 S" A $end
$var wire 1 v B $end
$var wire 1 f Y $end
$upscope $end
$scope module _135_ $end
$var wire 1 T" A $end
$var wire 1 u B $end
$var wire 1 e Y $end
$upscope $end
$scope module _136_ $end
$var wire 1 f A $end
$var wire 1 e B $end
$var wire 1 U" Y $end
$upscope $end
$scope module _137_ $end
$var wire 1 V" A $end
$var wire 1 ? B $end
$var wire 1 d Y $end
$upscope $end
$scope module _138_ $end
$var wire 1 @ A $end
$var wire 1 W" B $end
$var wire 1 c Y $end
$upscope $end
$scope module _139_ $end
$var wire 1 X" A $end
$var wire 1 d B $end
$var wire 1 b Y $end
$upscope $end
$scope module _140_ $end
$var wire 1 Y" A $end
$var wire 1 c B $end
$var wire 1 a Y $end
$upscope $end
$scope module _141_ $end
$var wire 1 b A $end
$var wire 1 a B $end
$var wire 1 Z" Y $end
$upscope $end
$scope module _142_ $end
$var wire 1 [" A $end
$var wire 1 d B $end
$var wire 1 ` Y $end
$upscope $end
$scope module _143_ $end
$var wire 1 \" A $end
$var wire 1 c B $end
$var wire 1 _ Y $end
$upscope $end
$scope module _144_ $end
$var wire 1 ` A $end
$var wire 1 _ B $end
$var wire 1 ]" Y $end
$upscope $end
$scope module _145_ $end
$var wire 1 ^" A $end
$var wire 1 d B $end
$var wire 1 ^ Y $end
$upscope $end
$scope module _146_ $end
$var wire 1 _" A $end
$var wire 1 c B $end
$var wire 1 ] Y $end
$upscope $end
$scope module _147_ $end
$var wire 1 ^ A $end
$var wire 1 ] B $end
$var wire 1 `" Y $end
$upscope $end
$scope module _148_ $end
$var wire 1 a" A $end
$var wire 1 d B $end
$var wire 1 \ Y $end
$upscope $end
$scope module _149_ $end
$var wire 1 b" A $end
$var wire 1 c B $end
$var wire 1 [ Y $end
$upscope $end
$scope module _150_ $end
$var wire 1 \ A $end
$var wire 1 [ B $end
$var wire 1 c" Y $end
$upscope $end
$scope module _151_ $end
$var wire 1 d" A $end
$var wire 1 d B $end
$var wire 1 Z Y $end
$upscope $end
$scope module _152_ $end
$var wire 1 e" A $end
$var wire 1 c B $end
$var wire 1 Y Y $end
$upscope $end
$scope module _153_ $end
$var wire 1 Z A $end
$var wire 1 Y B $end
$var wire 1 f" Y $end
$upscope $end
$scope module _154_ $end
$var wire 1 g" A $end
$var wire 1 d B $end
$var wire 1 X Y $end
$upscope $end
$scope module _155_ $end
$var wire 1 h" A $end
$var wire 1 c B $end
$var wire 1 W Y $end
$upscope $end
$scope module _156_ $end
$var wire 1 X A $end
$var wire 1 W B $end
$var wire 1 i" Y $end
$upscope $end
$scope module _157_ $end
$var wire 1 j" A $end
$var wire 1 d B $end
$var wire 1 V Y $end
$upscope $end
$scope module _158_ $end
$var wire 1 k" A $end
$var wire 1 c B $end
$var wire 1 U Y $end
$upscope $end
$scope module _159_ $end
$var wire 1 V A $end
$var wire 1 U B $end
$var wire 1 l" Y $end
$upscope $end
$scope module _160_ $end
$var wire 1 m" A $end
$var wire 1 d B $end
$var wire 1 T Y $end
$upscope $end
$scope module _161_ $end
$var wire 1 n" A $end
$var wire 1 c B $end
$var wire 1 S Y $end
$upscope $end
$scope module _162_ $end
$var wire 1 T A $end
$var wire 1 S B $end
$var wire 1 o" Y $end
$upscope $end
$scope module _163_ $end
$var wire 1 @ A $end
$var wire 1 p" B $end
$var wire 1 R Y $end
$upscope $end
$scope module _164_ $end
$var wire 1 q" A $end
$var wire 1 ? B $end
$var wire 1 Q Y $end
$upscope $end
$scope module _165_ $end
$var wire 1 r" A $end
$var wire 1 R B $end
$var wire 1 P Y $end
$upscope $end
$scope module _166_ $end
$var wire 1 s" A $end
$var wire 1 Q B $end
$var wire 1 O Y $end
$upscope $end
$scope module _167_ $end
$var wire 1 P A $end
$var wire 1 O B $end
$var wire 1 t" Y $end
$upscope $end
$scope module _168_ $end
$var wire 1 u" A $end
$var wire 1 R B $end
$var wire 1 N Y $end
$upscope $end
$scope module _169_ $end
$var wire 1 v" A $end
$var wire 1 Q B $end
$var wire 1 M Y $end
$upscope $end
$scope module _170_ $end
$var wire 1 N A $end
$var wire 1 M B $end
$var wire 1 w" Y $end
$upscope $end
$scope module _171_ $end
$var wire 1 x" A $end
$var wire 1 R B $end
$var wire 1 L Y $end
$upscope $end
$scope module _172_ $end
$var wire 1 y" A $end
$var wire 1 Q B $end
$var wire 1 K Y $end
$upscope $end
$scope module _173_ $end
$var wire 1 L A $end
$var wire 1 K B $end
$var wire 1 z" Y $end
$upscope $end
$scope module _174_ $end
$var wire 1 {" A $end
$var wire 1 R B $end
$var wire 1 J Y $end
$upscope $end
$scope module _175_ $end
$var wire 1 |" A $end
$var wire 1 Q B $end
$var wire 1 I Y $end
$upscope $end
$scope module _176_ $end
$var wire 1 J A $end
$var wire 1 I B $end
$var wire 1 }" Y $end
$upscope $end
$scope module _177_ $end
$var wire 1 ~" A $end
$var wire 1 R B $end
$var wire 1 H Y $end
$upscope $end
$scope module _178_ $end
$var wire 1 !# A $end
$var wire 1 Q B $end
$var wire 1 G Y $end
$upscope $end
$scope module _179_ $end
$var wire 1 H A $end
$var wire 1 G B $end
$var wire 1 "# Y $end
$upscope $end
$scope module _180_ $end
$var wire 1 ## A $end
$var wire 1 R B $end
$var wire 1 F Y $end
$upscope $end
$scope module _181_ $end
$var wire 1 $# A $end
$var wire 1 Q B $end
$var wire 1 E Y $end
$upscope $end
$scope module _182_ $end
$var wire 1 F A $end
$var wire 1 E B $end
$var wire 1 %# Y $end
$upscope $end
$scope module _183_ $end
$var wire 1 &# A $end
$var wire 1 R B $end
$var wire 1 D Y $end
$upscope $end
$scope module _184_ $end
$var wire 1 '# A $end
$var wire 1 Q B $end
$var wire 1 C Y $end
$upscope $end
$scope module _185_ $end
$var wire 1 D A $end
$var wire 1 C B $end
$var wire 1 (# Y $end
$upscope $end
$scope module _186_ $end
$var wire 1 )# A $end
$var wire 1 R B $end
$var wire 1 B Y $end
$upscope $end
$scope module _187_ $end
$var wire 1 *# A $end
$var wire 1 Q B $end
$var wire 1 A Y $end
$upscope $end
$scope module _188_ $end
$var wire 1 B A $end
$var wire 1 A B $end
$var wire 1 +# Y $end
$upscope $end
$scope module _189_ $end
$var wire 1 ,# D $end
$var wire 1 + C $end
$var reg 1 -# Q $end
$upscope $end
$scope module _190_ $end
$var wire 1 .# D $end
$var wire 1 + C $end
$var reg 1 /# Q $end
$upscope $end
$scope module _191_ $end
$var wire 1 0# D $end
$var wire 1 + C $end
$var reg 1 1# Q $end
$upscope $end
$scope module _192_ $end
$var wire 1 2# D $end
$var wire 1 + C $end
$var reg 1 3# Q $end
$upscope $end
$scope module _193_ $end
$var wire 1 4# D $end
$var wire 1 + C $end
$var reg 1 5# Q $end
$upscope $end
$scope module _194_ $end
$var wire 1 6# D $end
$var wire 1 + C $end
$var reg 1 7# Q $end
$upscope $end
$scope module _195_ $end
$var wire 1 8# D $end
$var wire 1 + C $end
$var reg 1 9# Q $end
$upscope $end
$scope module _196_ $end
$var wire 1 :# D $end
$var wire 1 + C $end
$var reg 1 ;# Q $end
$upscope $end
$scope module _197_ $end
$var wire 1 <# D $end
$var wire 1 + C $end
$var reg 1 =# Q $end
$upscope $end
$scope module _198_ $end
$var wire 1 ># D $end
$var wire 1 + C $end
$var reg 1 ?# Q $end
$upscope $end
$scope module _199_ $end
$var wire 1 @# D $end
$var wire 1 + C $end
$var reg 1 A# Q $end
$upscope $end
$scope module _200_ $end
$var wire 1 B# D $end
$var wire 1 + C $end
$var reg 1 C# Q $end
$upscope $end
$scope module _201_ $end
$var wire 1 D# D $end
$var wire 1 + C $end
$var reg 1 E# Q $end
$upscope $end
$scope module _202_ $end
$var wire 1 F# D $end
$var wire 1 + C $end
$var reg 1 G# Q $end
$upscope $end
$scope module _203_ $end
$var wire 1 H# D $end
$var wire 1 + C $end
$var reg 1 I# Q $end
$upscope $end
$scope module _204_ $end
$var wire 1 J# D $end
$var wire 1 + C $end
$var reg 1 K# Q $end
$upscope $end
$scope module _205_ $end
$var wire 1 L# D $end
$var wire 1 + C $end
$var reg 1 M# Q $end
$upscope $end
$scope module _206_ $end
$var wire 1 N# D $end
$var wire 1 + C $end
$var reg 1 O# Q $end
$upscope $end
$scope module _207_ $end
$var wire 1 P# D $end
$var wire 1 + C $end
$var reg 1 Q# Q $end
$upscope $end
$scope module _208_ $end
$var wire 1 R# D $end
$var wire 1 + C $end
$var reg 1 S# Q $end
$upscope $end
$scope module _209_ $end
$var wire 1 T# D $end
$var wire 1 + C $end
$var reg 1 U# Q $end
$upscope $end
$scope module _210_ $end
$var wire 1 V# D $end
$var wire 1 + C $end
$var reg 1 W# Q $end
$upscope $end
$scope module _211_ $end
$var wire 1 X# D $end
$var wire 1 + C $end
$var reg 1 Y# Q $end
$upscope $end
$scope module _212_ $end
$var wire 1 Z# D $end
$var wire 1 + C $end
$var reg 1 [# Q $end
$upscope $end
$scope module _213_ $end
$var wire 1 \# D $end
$var wire 1 + C $end
$var reg 1 ]# Q $end
$upscope $end
$scope module _214_ $end
$var wire 1 ^# D $end
$var wire 1 + C $end
$var reg 1 _# Q $end
$upscope $end
$scope module _215_ $end
$var wire 1 `# D $end
$var wire 1 + C $end
$var reg 1 a# Q $end
$upscope $end
$scope module _216_ $end
$var wire 1 b# D $end
$var wire 1 + C $end
$var reg 1 c# Q $end
$upscope $end
$scope module _217_ $end
$var wire 1 d# D $end
$var wire 1 + C $end
$var reg 1 e# Q $end
$upscope $end
$scope module _218_ $end
$var wire 1 f# D $end
$var wire 1 + C $end
$var reg 1 g# Q $end
$upscope $end
$scope module _219_ $end
$var wire 1 h# D $end
$var wire 1 + C $end
$var reg 1 i# Q $end
$upscope $end
$scope module _220_ $end
$var wire 1 j# D $end
$var wire 1 + C $end
$var reg 1 k# Q $end
$upscope $end
$scope module _221_ $end
$var wire 1 % D $end
$var wire 1 + C $end
$var reg 1 # Q $end
$upscope $end
$upscope $end
$scope module Demux_8x32_instancia $end
$var wire 1 % valid_in_8x32 $end
$var wire 2 l# selector_clk_4f [1:0] $end
$var wire 1 ' reset_L $end
$var wire 8 m# data_in_8x32 [7:0] $end
$var wire 1 + clk_4f $end
$var reg 32 n# data_out_8x32 [31:0] $end
$var reg 1 $ valid_out_8x32 $end
$upscope $end
$scope module probador_Instanciado $end
$var wire 32 o# data_out_8x32 [31:0] $end
$var wire 32 p# data_out_8x32_Estruc [31:0] $end
$var wire 1 $ valid_out_8x32 $end
$var wire 1 # valid_out_Estruc $end
$var reg 1 + clk_4f $end
$var reg 8 q# data_in_8x32 [7:0] $end
$var reg 1 ' reset_L $end
$var reg 2 r# selector_clk_4f [1:0] $end
$var reg 1 % valid_in_8x32 $end
$upscope $end
$upscope $end
$scope module DFFSR $end
$var wire 1 s# C $end
$var wire 1 t# D $end
$var wire 1 u# R $end
$var wire 1 v# S $end
$var reg 1 w# Q $end
$upscope $end
$enddefinitions $end
#0
$dumpvars
xw#
zv#
zu#
zt#
zs#
b0 r#
b0 q#
bx p#
bx o#
bx n#
b0 m#
b0 l#
xk#
xj#
xi#
xh#
xg#
xf#
xe#
xd#
xc#
xb#
xa#
x`#
x_#
x^#
x]#
x\#
x[#
xZ#
xY#
xX#
xW#
xV#
xU#
xT#
xS#
xR#
xQ#
xP#
xO#
xN#
xM#
xL#
xK#
xJ#
xI#
xH#
xG#
xF#
xE#
xD#
xC#
xB#
xA#
x@#
x?#
x>#
x=#
x<#
x;#
x:#
x9#
x8#
x7#
x6#
x5#
x4#
x3#
x2#
x1#
x0#
x/#
x.#
x-#
x,#
x+#
x*#
0)#
x(#
x'#
0&#
x%#
x$#
0##
x"#
x!#
0~"
x}"
x|"
0{"
xz"
xy"
0x"
xw"
xv"
0u"
xt"
xs"
0r"
0q"
0p"
xo"
xn"
0m"
xl"
xk"
0j"
xi"
xh"
0g"
xf"
xe"
0d"
xc"
xb"
0a"
x`"
x_"
0^"
x]"
x\"
0["
xZ"
xY"
0X"
0W"
0V"
xU"
xT"
0S"
xR"
xQ"
0P"
xO"
xN"
0M"
xL"
xK"
0J"
xI"
xH"
0G"
xF"
xE"
0D"
xC"
xB"
0A"
x@"
x?"
0>"
0="
0<"
x;"
x:"
09"
x8"
x7"
06"
x5"
x4"
03"
x2"
x1"
00"
x/"
x."
0-"
x,"
x+"
0*"
x)"
x("
0'"
x&"
x%"
0$"
0#"
0""
0!"
0~
bx }
1|
x{
1z
xy
1x
xw
0v
1u
1t
xs
1r
xq
1p
xo
1n
xm
1l
xk
1j
xi
1h
xg
1f
xe
0d
1c
1b
xa
1`
x_
1^
x]
1\
x[
1Z
xY
1X
xW
1V
xU
1T
xS
0R
1Q
1P
xO
1N
xM
1L
xK
1J
xI
1H
xG
1F
xE
1D
xC
1B
xA
1@
1?
1>
0=
1<
0;
0:
19
18
x7
16
x5
14
x3
12
x1
10
x/
b0 .
bx -
b0 ,
0+
b0 *
bx )
bx (
0'
b0 &
0%
x$
x#
z"
z!
$end
#10000000000
0$
0#
1+
#20000000000
0+
#30000000000
1+
1'
#40000000000
0+
#50000000000
0%"
0("
0+"
0."
01"
04"
07"
0:"
1$
b0xxxxxxxxxxxxxxxxxxxxxxxx )
b0xxxxxxxxxxxxxxxxxxxxxxxx n#
b0xxxxxxxxxxxxxxxxxxxxxxxx o#
0]#
0_#
0a#
0c#
0e#
0g#
0i#
b0xxxxxxxxxxxxxxxxxxxxxxxx (
b0xxxxxxxxxxxxxxxxxxxxxxxx -
b0xxxxxxxxxxxxxxxxxxxxxxxx p#
0k#
1#
1+
0\#
0^#
0`#
0b#
0d#
0f#
0h#
0j#
0&"
0)"
0,"
0/"
02"
05"
08"
b0xxxxxxxxxxxxxxxxxxxxxxxx }
0;"
17
15
13
11
1/
1{
1y
1w
09
1:
1;
0<
1%
#60000000000
0+
#70000000000
1L#
0N#
0P#
0R#
0T#
0V#
0X#
0Z#
1Z"
0]"
0`"
0c"
0f"
0i"
0l"
0o"
0:
0b
0\#
1a
1_
1]
1[
1Y
1W
1U
1S
19
b1xxxxxxxxxxxxxxxx }
0&"
1=
1d
0c
0>
18
0?
1p"
1W"
1="
1#"
1!"
1r"
1X"
1>"
1$"
b1 &
b1 ,
b1 l#
b1 r#
b1 *
b1 .
b1 m#
b1 q#
1+
#80000000000
0+
#90000000000
0<#
0@#
0B#
0D#
0F#
0H#
0J#
1>#
0t"
0z"
0}"
0"#
0%#
0(#
0+#
1w"
0N#
1L#
1O
1M
1K
1I
1G
1E
1C
1A
0N
0a
0]"
b100000010xxxxxxxx }
1Z"
0Q
1R
1c
0d
1`
1b
1?
0@
1q"
0p"
0W"
1V"
0="
1<"
0#"
1""
0!"
1~
1u"
0r"
1["
0X"
1A"
0>"
1'"
0$"
1Y"
0\"
0_"
0b"
0e"
0h"
0k"
0n"
b10 &
b10 ,
b10 l#
b10 r#
b10 *
b10 .
b10 m#
b10 q#
b1xxxxxxxxxxxxxxxx )
b1xxxxxxxxxxxxxxxx n#
b1xxxxxxxxxxxxxxxx o#
1M#
0O#
0Q#
0S#
0U#
0W#
0Y#
b1xxxxxxxxxxxxxxxx (
b1xxxxxxxxxxxxxxxx -
b1xxxxxxxxxxxxxxxx p#
0[#
1+
#100000000000
0+
#110000000000
1,#
1.#
00#
02#
04#
06#
08#
0:#
1@"
1C"
0F"
0I"
0L"
0O"
0R"
0U"
0t
0r
0M
0<#
1N
1s
1q
1o
1m
1k
1i
1g
1e
b10000001000000011 }
0t"
1v
1Q
0R
0u
1P
0?
0*#
0'#
0$#
0!#
0|"
0y"
1v"
0s"
1p"
1W"
1="
1#"
1!"
1r"
1X"
1>"
1$"
0K#
0I#
0G#
0E#
0C#
0A#
1?#
b100000010xxxxxxxx (
b100000010xxxxxxxx -
b100000010xxxxxxxx p#
0=#
b100000010xxxxxxxx )
b100000010xxxxxxxx n#
b100000010xxxxxxxx o#
b11 &
b11 ,
b11 l#
b11 r#
b11 *
b11 .
b11 m#
b11 q#
1+
#120000000000
0+
#130000000000
1`#
1,"
04
1:
00#
1.#
1,#
0s
0q
09
0F"
1C"
b100000000010000001000000011 }
1@"
0=
0v
1u
1>
1p
1r
1t
1?
1@
0q"
0p"
0W"
0V"
0="
0<"
0#"
0""
0!"
0~
1x"
0u"
0r"
1^"
0["
0X"
1D"
0A"
0>"
1*"
0'"
0$"
1?"
1B"
0E"
0H"
0K"
0N"
0Q"
0T"
b0 &
b0 ,
b0 l#
b0 r#
b100 *
b100 .
b100 m#
b100 q#
b10000001000000011 )
b10000001000000011 n#
b10000001000000011 o#
1-#
1/#
01#
03#
05#
07#
09#
b10000001000000011 (
b10000001000000011 -
b10000001000000011 p#
0;#
1+
#140000000000
0+
#150000000000
1P#
14
1`"
03
0:
0b
0^
0\#
1a
19
b100000001010000001000000011 }
0&"
1=
1d
0c
0>
18
0?
1+"
1p"
1W"
1="
1#"
1!"
1r"
1X"
1>"
1$"
b100000000010000001000000011 (
b100000000010000001000000011 -
b100000000010000001000000011 p#
1a#
b100000000010000001000000011 )
b100000000010000001000000011 n#
b100000000010000001000000011 o#
b1 &
b1 ,
b1 l#
b1 r#
b101 *
b101 .
b101 m#
b101 q#
1+
#160000000000
0+
#170000000000
1@#
1z"
0N#
1L#
1M
0N
0L
0a
0]
1^
0]"
b100000001010000011000000011 }
1Z"
0Q
1R
1c
0d
1`
1b
1?
0@
1q"
0p"
0W"
1V"
0="
1<"
0#"
1""
0!"
1~
1u"
0r"
1["
0X"
1A"
0>"
1'"
0$"
1_"
b10 &
b10 ,
b10 l#
b10 r#
b110 *
b110 .
b110 m#
b110 q#
b100000001010000001000000011 )
b100000001010000001000000011 n#
b100000001010000001000000011 o#
b100000001010000001000000011 (
b100000001010000001000000011 -
b100000001010000001000000011 p#
1Q#
1+
#180000000000
0+
#190000000000
10#
1F"
0t
0r
0p
0M
0K
0<#
1N
1L
1s
1q
b100000001010000011000000111 }
0t"
1v
1Q
0R
0u
1P
0?
1y"
1p"
1W"
1="
1#"
1!"
1r"
1X"
1>"
1$"
b100000001010000011000000011 (
b100000001010000011000000011 -
b100000001010000011000000011 p#
1A#
b100000001010000011000000011 )
b100000001010000011000000011 n#
b100000001010000011000000011 o#
b11 &
b11 ,
b11 l#
b11 r#
b111 *
b111 .
b111 m#
b111 q#
1+
#200000000000
0+
#210000000000
0o
1{"
1a"
1G"
1-"
1E"
b100000001010000011000000111 )
b100000001010000011000000111 n#
b100000001010000011000000111 o#
b100000001010000011000000111 (
b100000001010000011000000111 -
b100000001010000011000000111 p#
11#
10#
1.#
1,#
0s
0q
1F"
1C"
b100000001010000011000000111 }
1@"
0=
0v
1u
1>
0;
1p
1r
1t
1?
1@
1<
0q"
0p"
0W"
0V"
0="
0<"
0#"
0""
0!"
0~
0x"
0u"
0r"
0^"
0["
0X"
0D"
0A"
0>"
0*"
0'"
0$"
b0 &
b0 ,
b0 l#
b0 r#
0'
1%
b1000 *
b1000 .
b1000 m#
b1000 q#
1+
