Tareas/Tarea8_Digitales_II/Gray.vcd
$date
	Sat Oct 24 15:02:39 2020
$end
$version
	Icarus Verilog
$end
$timescale
	100ps
$end
$scope module BUF $end
$var wire 1 ! A $end
$var wire 1 " Y $end
$upscope $end
$scope module BancoPrueba $end
$var wire 5 # salida_gray [4:0] $end
$var wire 1 $ reset_L $end
$var wire 5 % gray_out [4:0] $end
$var wire 1 & enable $end
$var wire 1 ' clk $end
$scope module Gray_cont_inst $end
$var wire 1 $ reset_L $end
$var wire 1 & enable $end
$var wire 1 ' clk $end
$var reg 5 ( counter [4:0] $end
$var reg 5 ) gray_out [4:0] $end
$var reg 1 * n0 $end
$var reg 1 + n1 $end
$var reg 1 , n2 $end
$var reg 1 - n3 $end
$upscope $end
$scope module Probador_Inst $end
$var wire 5 . gray_out [4:0] $end
$var wire 5 / salida_gray [4:0] $end
$var reg 1 ' clk $end
$var reg 5 0 comparador [4:0] $end
$var reg 1 & enable $end
$var reg 1 $ reset_L $end
$var reg 5 1 temp1 [4:0] $end
$var reg 5 2 temp2 [4:0] $end
$upscope $end
$scope module contador_gray_synth_ins $end
$var wire 1 ' clk $end
$var wire 1 & enable $end
$var wire 1 $ reset_L $end
$var wire 2 3 xor_output_cnt [1:0] $end
$var wire 5 4 salida_gray [4:0] $end
$var wire 5 5 count [4:0] $end
$var wire 1 6 _046_ $end
$var wire 1 7 _045_ $end
$var wire 1 8 _044_ $end
$var wire 1 9 _043_ $end
$var wire 1 : _042_ $end
$var wire 1 ; _041_ $end
$var wire 1 < _040_ $end
$var wire 1 = _039_ $end
$var wire 1 > _038_ $end
$var wire 1 ? _037_ $end
$var wire 1 @ _036_ $end
$var wire 1 A _035_ $end
$var wire 1 B _034_ $end
$var wire 1 C _033_ $end
$var wire 1 D _032_ $end
$var wire 1 E _031_ $end
$var wire 1 F _030_ $end
$var wire 1 G _029_ $end
$var wire 1 H _028_ $end
$var wire 1 I _027_ $end
$var wire 1 J _026_ $end
$var wire 1 K _025_ $end
$var wire 1 L _024_ $end
$var wire 1 M _023_ $end
$var wire 1 N _022_ $end
$var wire 1 O _021_ $end
$var wire 1 P _020_ $end
$var wire 1 Q _019_ $end
$var wire 1 R _018_ $end
$var wire 1 S _017_ $end
$var wire 1 T _016_ $end
$var wire 1 U _015_ $end
$var wire 1 V _014_ $end
$var wire 1 W _013_ $end
$var wire 1 X _012_ $end
$var wire 1 Y _011_ $end
$var wire 1 Z _010_ $end
$var wire 1 [ _009_ $end
$var wire 1 \ _008_ $end
$var wire 1 ] _007_ $end
$var wire 1 ^ _006_ $end
$var wire 1 _ _005_ $end
$var wire 1 ` _004_ $end
$var wire 1 a _003_ $end
$var wire 1 b _002_ $end
$var wire 2 c _001_ [1:0] $end
$var wire 5 d _000_ [4:0] $end
$scope module _047_ $end
$var wire 1 e A $end
$var wire 1 b Y $end
$upscope $end
$scope module _048_ $end
$var wire 1 f A $end
$var wire 1 a Y $end
$upscope $end
$scope module _049_ $end
$var wire 1 g A $end
$var wire 1 ` Y $end
$upscope $end
$scope module _050_ $end
$var wire 1 h A $end
$var wire 1 _ Y $end
$upscope $end
$scope module _051_ $end
$var wire 1 i A $end
$var wire 1 ^ Y $end
$upscope $end
$scope module _052_ $end
$var wire 1 & A $end
$var wire 1 j B $end
$var wire 1 ] Y $end
$upscope $end
$scope module _053_ $end
$var wire 1 ] A $end
$var wire 1 \ Y $end
$upscope $end
$scope module _054_ $end
$var wire 1 _ A $end
$var wire 1 ^ B $end
$var wire 1 [ Y $end
$upscope $end
$scope module _055_ $end
$var wire 1 k A $end
$var wire 1 l B $end
$var wire 1 Z Y $end
$upscope $end
$scope module _056_ $end
$var wire 1 \ A $end
$var wire 1 [ B $end
$var wire 1 Y Y $end
$upscope $end
$scope module _057_ $end
$var wire 1 m A $end
$var wire 1 n B $end
$var wire 1 X Y $end
$upscope $end
$scope module _058_ $end
$var wire 1 X A $end
$var wire 1 W Y $end
$upscope $end
$scope module _059_ $end
$var wire 1 o A $end
$var wire 1 p B $end
$var wire 1 V Y $end
$upscope $end
$scope module _060_ $end
$var wire 1 _ A $end
$var wire 1 ] B $end
$var wire 1 U Y $end
$upscope $end
$scope module _061_ $end
$var wire 1 q A $end
$var wire 1 r B $end
$var wire 1 T Y $end
$upscope $end
$scope module _062_ $end
$var wire 1 T A $end
$var wire 1 S Y $end
$upscope $end
$scope module _063_ $end
$var wire 1 b A $end
$var wire 1 Y B $end
$var wire 1 R Y $end
$upscope $end
$scope module _064_ $end
$var wire 1 Y A $end
$var wire 1 X B $end
$var wire 1 Q Y $end
$upscope $end
$scope module _065_ $end
$var wire 1 s A $end
$var wire 1 R B $end
$var wire 1 P Y $end
$upscope $end
$scope module _066_ $end
$var wire 1 a A $end
$var wire 1 P B $end
$var wire 1 O Y $end
$upscope $end
$scope module _067_ $end
$var wire 1 t A $end
$var wire 1 Q B $end
$var wire 1 N Y $end
$upscope $end
$scope module _068_ $end
$var wire 1 a A $end
$var wire 1 P B $end
$var wire 1 M Y $end
$upscope $end
$scope module _069_ $end
$var wire 1 $ A $end
$var wire 1 M B $end
$var wire 1 L Y $end
$upscope $end
$scope module _070_ $end
$var wire 1 O A $end
$var wire 1 L B $end
$var wire 1 u Y $end
$upscope $end
$scope module _071_ $end
$var wire 1 ` A $end
$var wire 1 N B $end
$var wire 1 K Y $end
$upscope $end
$scope module _072_ $end
$var wire 1 ` A $end
$var wire 1 N B $end
$var wire 1 J Y $end
$upscope $end
$scope module _073_ $end
$var wire 1 $ A $end
$var wire 1 J B $end
$var wire 1 I Y $end
$upscope $end
$scope module _074_ $end
$var wire 1 K A $end
$var wire 1 I B $end
$var wire 1 v Y $end
$upscope $end
$scope module _075_ $end
$var wire 1 & A $end
$var wire 1 w B $end
$var wire 1 H Y $end
$upscope $end
$scope module _076_ $end
$var wire 1 $ A $end
$var wire 1 ] B $end
$var wire 1 G Y $end
$upscope $end
$scope module _077_ $end
$var wire 1 H A $end
$var wire 1 G B $end
$var wire 1 x Y $end
$upscope $end
$scope module _078_ $end
$var wire 1 _ A $end
$var wire 1 ] B $end
$var wire 1 F Y $end
$upscope $end
$scope module _079_ $end
$var wire 1 $ A $end
$var wire 1 F B $end
$var wire 1 E Y $end
$upscope $end
$scope module _080_ $end
$var wire 1 U A $end
$var wire 1 E B $end
$var wire 1 y Y $end
$upscope $end
$scope module _081_ $end
$var wire 1 z A $end
$var wire 1 U B $end
$var wire 1 D Y $end
$upscope $end
$scope module _082_ $end
$var wire 1 $ A $end
$var wire 1 Y B $end
$var wire 1 C Y $end
$upscope $end
$scope module _083_ $end
$var wire 1 D A $end
$var wire 1 C B $end
$var wire 1 { Y $end
$upscope $end
$scope module _084_ $end
$var wire 1 b A $end
$var wire 1 Y B $end
$var wire 1 B Y $end
$upscope $end
$scope module _085_ $end
$var wire 1 $ A $end
$var wire 1 B B $end
$var wire 1 A Y $end
$upscope $end
$scope module _086_ $end
$var wire 1 R A $end
$var wire 1 A B $end
$var wire 1 | Y $end
$upscope $end
$scope module _087_ $end
$var wire 1 } A $end
$var wire 1 R B $end
$var wire 1 @ Y $end
$upscope $end
$scope module _088_ $end
$var wire 1 $ A $end
$var wire 1 P B $end
$var wire 1 ? Y $end
$upscope $end
$scope module _089_ $end
$var wire 1 @ A $end
$var wire 1 ? B $end
$var wire 1 ~ Y $end
$upscope $end
$scope module _090_ $end
$var wire 1 !" A $end
$var wire 1 "" B $end
$var wire 1 > Y $end
$upscope $end
$scope module _091_ $end
$var wire 1 #" A $end
$var wire 1 $" B $end
$var wire 1 = Y $end
$upscope $end
$scope module _092_ $end
$var wire 1 a A $end
$var wire 1 %" B $end
$var wire 1 < Y $end
$upscope $end
$scope module _093_ $end
$var wire 1 Z A $end
$var wire 1 < B $end
$var wire 1 ; Y $end
$upscope $end
$scope module _094_ $end
$var wire 1 = A $end
$var wire 1 ; B $end
$var wire 1 : Y $end
$upscope $end
$scope module _095_ $end
$var wire 1 : A $end
$var wire 1 9 Y $end
$upscope $end
$scope module _096_ $end
$var wire 1 V A $end
$var wire 1 9 B $end
$var wire 1 8 Y $end
$upscope $end
$scope module _097_ $end
$var wire 1 > A $end
$var wire 1 8 B $end
$var wire 1 &" Y $end
$upscope $end
$scope module _098_ $end
$var wire 1 '" A $end
$var wire 1 (" B $end
$var wire 1 7 Y $end
$upscope $end
$scope module _099_ $end
$var wire 1 [ A $end
$var wire 1 7 B $end
$var wire 1 )" Y $end
$upscope $end
$scope module _100_ $end
$var wire 1 *" A $end
$var wire 1 +" B $end
$var wire 1 6 Y $end
$upscope $end
$scope module _101_ $end
$var wire 1 S A $end
$var wire 1 6 B $end
$var wire 1 ," Y $end
$upscope $end
$scope module _102_ $end
$var wire 1 W A $end
$var wire 1 = B $end
$var wire 1 -" Y $end
$upscope $end
$scope module _103_ $end
$var wire 1 ' C $end
$var wire 1 ." D $end
$var reg 1 /" Q $end
$upscope $end
$scope module _104_ $end
$var wire 1 ' C $end
$var wire 1 0" D $end
$var reg 1 1" Q $end
$upscope $end
$scope module _105_ $end
$var wire 1 ' C $end
$var wire 1 2" D $end
$var reg 1 3" Q $end
$upscope $end
$scope module _106_ $end
$var wire 1 ' C $end
$var wire 1 4" D $end
$var reg 1 5" Q $end
$upscope $end
$scope module _107_ $end
$var wire 1 ' C $end
$var wire 1 6" D $end
$var reg 1 7" Q $end
$upscope $end
$scope module _108_ $end
$var wire 1 ' C $end
$var wire 1 8" D $end
$var reg 1 9" Q $end
$upscope $end
$scope module _109_ $end
$var wire 1 ' C $end
$var wire 1 :" D $end
$var reg 1 ;" Q $end
$upscope $end
$upscope $end
$upscope $end
$scope module DFFSR $end
$var wire 1 <" C $end
$var wire 1 =" D $end
$var wire 1 >" R $end
$var wire 1 ?" S $end
$var reg 1 @" Q $end
$upscope $end
$enddefinitions $end
#0
$dumpvars
x@"
z?"
z>"
z="
z<"
x;"
0:"
x9"
08"
x7"
06"
x5"
04"
x3"
02"
x1"
00"
x/"
0."
x-"
x,"
x+"
x*"
x)"
x("
x'"
x&"
x%"
x$"
x#"
x""
x!"
0~
x}
0|
0{
xz
0y
0x
xw
0v
0u
xt
xs
xr
xq
xp
xo
xn
xm
xl
xk
xj
xi
xh
xg
xf
xe
b0 d
b0 c
xb
xa
x`
x_
x^
1]
0\
x[
xZ
1Y
xX
xW
xV
0U
xT
xS
0R
0Q
1P
0O
1N
xM
1L
0K
xJ
1I
xH
1G
xF
1E
xD
1C
xB
1A
x@
1?
x>
x=
x<
x;
x:
x9
x8
x7
x6
bx 5
bx 4
bx 3
bx 2
bx 1
b0 0
bx /
bx .
x-
x,
x+
x*
bx )
bx (
0'
0&
bx %
0$
bx #
z"
z!
$end
#10000000000
09
1:
0&"
08
0)"
0,"
0-"
0;
0F
0[
0S
0B
0W
0M
0J
1H
1>
1V
17
1D
1Z
16
1T
1=
1@
1X
1<
1_
1^
1b
1a
1`
0!"
0w
0o
0j
0'"
0""
0p
0k
0h
0+"
0("
0z
0r
0l
0i
0*"
0#"
0q
0m
0e
b0 #
b0 /
b0 4
0$"
0}
0s
0n
0t
0f
0%"
0g
b0 %
b0 )
b0 .
b0 (
0/"
01"
03"
05"
b0 5
07"
09"
b0 3
0;"
1'
#20000000000
0'
#30000000000
b0 2
b0 1
1'
0G
0C
0?
1$
#40000000000
0'
#50000000000
10"
1y
0E
b1 #
b1 /
b1 4
1&"
1G
1F
1\
0>
0]
b1 %
b1 )
b1 .
1!"
1w
1o
1j
b1 (
b1 5
1/"
1'
0."
b10 d
0x
0H
1*
0+
0,
0-
1&
#60000000000
0'
#70000000000
1."
b11 d
1x
b11 #
b11 /
b11 4
1)"
0G
0\
07
1]
0_
1'"
1""
1p
1k
1h
0!"
0w
0o
0j
b11 %
b11 )
b11 .
1+
b1 2
b1 1
11"
b10 5
0/"
b10 (
1'
#80000000000
0'
#90000000000
12"
1{
00"
0."
b10 #
b10 /
b10 4
0&"
0y
0D
b100 d
0x
18
1U
1G
1\
0V
0]
b10 %
b10 )
b10 .
0*
1!"
1w
1o
1j
b11 (
b11 5
1/"
b11 2
b11 1
1'
#100000000000
0'
#110000000000
1."
00"
1x
b101 d
0y
1E
b110 #
b110 /
b110 4
1,"
08
0G
0U
0F
0\
06
1>
1V
1]
0^
1_
1+"
1("
1z
1r
1l
1i
0'"
0""
0p
0k
0h
0!"
0w
0o
0j
b110 %
b110 )
b110 .
1,
b10 2
b10 1
13"
01"
b100 5
0/"
b100 (
1'
#120000000000
0'
#130000000000
10"
1y
0."
b110 d
0x
0E
b111 #
b111 /
b111 4
1&"
1G
1F
1\
0>
0]
b111 %
b111 )
b111 .
1*
1!"
1w
1o
1j
b101 (
b101 5
1/"
b110 2
b110 1
1'
#140000000000
0'
#150000000000
1."
b111 d
1x
b101 #
b101 /
b101 4
0)"
0G
1[
0\
0Z
1]
0_
1'"
1""
1p
1k
1h
0!"
0w
0o
0j
b101 %
b101 )
b101 .
0+
b111 2
b111 1
11"
b110 5
0/"
b110 (
1'
#160000000000
0'
#170000000000
14"
1|
02"
0{
0A
1C
1B
00"
0."
b100 #
b100 /
b100 4
0&"
0y
b1000 d
0x
0Y
18
1U
1G
1\
0V
0]
b100 %
b100 )
b100 .
0*
1!"
1w
1o
1j
b111 (
b111 5
1/"
b101 2
b101 1
1'
#180000000000
0'
#190000000000
06"
0~
0C
1."
14"
00"
1x
1|
1@
b1001 d
0y
1D
1E
1Y
b1100 #
b1100 /
b1100 4
1-"
08
0G
0R
0[
0U
0F
0\
0=
17
1Z
1>
1V
1]
0b
1^
1_
1*"
1#"
1q
1m
1e
0+"
0("
0z
0r
0l
0i
0'"
0""
0p
0k
0h
0!"
0w
0o
0j
b1100 %
b1100 )
b1100 .
1-
b100 2
b100 1
15"
03"
01"
b1000 5
0/"
b1000 (
1'
#200000000000
0'
#210000000000
10"
1y
0."
b1010 d
0x
0E
b1101 #
b1101 /
b1101 4
1&"
1G
1F
1\
0>
0]
b1101 %
b1101 )
b1101 .
1*
1!"
1w
1o
1j
b1001 (
b1001 5
1/"
b1100 2
b1100 1
1'
#220000000000
0'
#230000000000
1."
b1011 d
1x
b1111 #
b1111 /
b1111 4
1)"
0G
0\
07
1]
0_
1'"
1""
1p
1k
1h
0!"
0w
0o
0j
b1111 %
b1111 )
b1111 .
1+
b1101 2
b1101 1
11"
b1010 5
0/"
b1010 (
1'
#240000000000
0'
#250000000000
12"
1{
00"
0."
b1110 #
b1110 /
b1110 4
0&"
0y
0D
b1100 d
0x
18
1U
1G
1\
0V
0]
b1110 %
b1110 )
b1110 .
0*
1!"
1w
1o
1j
b1011 (
b1011 5
1/"
b1111 2
b1111 1
1'
#260000000000
0'
#270000000000
1."
00"
1x
b1010 #
b1010 /
b1010 4
0,"
b1101 d
0y
1E
08
0G
1S
0U
0F
0\
0T
1>
1V
1]
0^
1_
1+"
1("
1z
1r
1l
1i
0'"
0""
0p
0k
0h
0!"
0w
0o
0j
b1010 %
b1010 )
b1010 .
0,
b1110 2
b1110 1
13"
01"
b1100 5
0/"
b1100 (
1'
#280000000000
0'
#290000000000
10"
1y
0."
b1110 d
0x
0E
b1011 #
b1011 /
b1011 4
1&"
1G
1F
1\
0>
0]
b1011 %
b1011 )
b1011 .
1*
1!"
1w
1o
1j
b1101 (
b1101 5
1/"
b1010 2
b1010 1
1'
#300000000000
0'
#310000000000
1."
b1111 d
1x
b1001 #
b1001 /
b1001 4
0)"
0G
1[
0\
0Z
1]
0_
1'"
1""
1p
1k
1h
0!"
0w
0o
0j
b1001 %
b1001 )
b1001 .
0+
b1011 2
b1011 1
11"
b1110 5
0/"
b1110 (
1'
#320000000000
0'
#330000000000
16"
1~
04"
02"
0|
0@
0{
1R
1C
00"
0."
b1000 #
b1000 /
b1000 4
0&"
0y
b10000 d
0x
0Y
18
1U
1G
1\
0V
0]
b1000 %
b1000 )
b1000 .
0*
1!"
1w
1o
1j
b1111 (
b1111 5
1/"
b1001 2
b1001 1
1'
#340000000000
0'
#350000000000
08"
1A
b0 c
0u
16"
0C
0B
1."
1L
1~
04"
00"
1x
0|
b10001 d
0y
1D
1E
1Y
0M
0?
08
0G
0R
0S
0[
0U
0F
0\
1P
16
1T
17
1Z
1>
1V
1]
1b
1^
1_
b11000 #
b11000 /
b11000 4
1$"
1}
1s
1n
0*"
0#"
0q
0m
0e
0+"
0("
0z
0r
0l
0i
0'"
0""
0p
0k
0h
0!"
0w
0o
0j
b11000 %
b11000 )
b11000 .
b1000 2
b1000 1
17"
05"
03"
01"
b10000 5
0/"
b10000 (
1'
#360000000000
0'
#370000000000
10"
1y
0."
b10010 d
0x
0E
b11001 #
b11001 /
b11001 4
1&"
1G
1F
1\
0>
0]
b11001 %
b11001 )
b11001 .
1*
1!"
1w
1o
1j
b10001 (
b10001 5
1/"
b11000 2
b11000 1
1'
#380000000000
0'
#390000000000
1."
b10011 d
1x
b11011 #
b11011 /
b11011 4
1)"
0G
0\
07
1]
0_
1'"
1""
1p
1k
1h
0!"
0w
0o
0j
b11011 %
b11011 )
b11011 .
1+
b11001 2
b11001 1
11"
b10010 5
0/"
b10010 (
1'
#400000000000
0'
#410000000000
12"
1{
00"
0."
b11010 #
b11010 /
b11010 4
0&"
0y
0D
b10100 d
0x
18
1U
1G
1\
0V
0]
b11010 %
b11010 )
b11010 .
0*
1!"
1w
1o
1j
b10011 (
b10011 5
1/"
b11011 2
b11011 1
1'
#420000000000
0'
#430000000000
1."
00"
1x
b10101 d
0y
1E
b11110 #
b11110 /
b11110 4
1,"
08
0G
0U
0F
0\
06
1>
1V
1]
0^
1_
1+"
1("
1z
1r
1l
1i
0'"
0""
0p
0k
0h
0!"
0w
0o
0j
b11110 %
b11110 )
b11110 .
1,
b11010 2
b11010 1
13"
01"
b10100 5
0/"
b10100 (
1'
#440000000000
0'
#450000000000
10"
1y
0."
b10110 d
0x
0E
b11111 #
b11111 /
b11111 4
1&"
1G
1F
1\
0>
0]
b11111 %
b11111 )
b11111 .
1*
1!"
1w
1o
1j
b10101 (
b10101 5
1/"
b11110 2
b11110 1
1'
#460000000000
0'
#470000000000
1."
b10111 d
1x
b11101 #
b11101 /
b11101 4
0)"
0G
1[
0\
0Z
1]
0_
1'"
1""
1p
1k
1h
0!"
0w
0o
0j
b11101 %
b11101 )
b11101 .
0+
b11111 2
b11111 1
11"
b10110 5
0/"
b10110 (
1'
#480000000000
0'
#490000000000
14"
1|
02"
0{
0A
1C
1B
00"
0."
b11100 #
b11100 /
b11100 4
0&"
0y
b11000 d
0x
0Y
18
1U
1G
1\
0V
0]
b11100 %
b11100 )
b11100 .
0*
1!"
1w
1o
1j
b10111 (
b10111 5
1/"
b11101 2
b11101 1
1'
#500000000000
0'
#510000000000
08"
b0 c
0u
16"
1L
1~
0M
0?
0C
1."
14"
00"
1x
b10100 #
b10100 /
b10100 4
0-"
1P
1|
b11001 d
0y
1D
1E
1Y
0Q
08
0G
1W
0R
0[
0U
0F
0\
0X
17
1Z
1>
1V
1]
0b
1^
1_
1*"
1#"
1q
1m
1e
0+"
0("
0z
0r
0l
0i
0'"
0""
0p
0k
0h
0!"
0w
0o
0j
b10100 %
b10100 )
b10100 .
0-
b11100 2
b11100 1
15"
03"
01"
b11000 5
0/"
b11000 (
1'
#520000000000
0'
#530000000000
10"
1y
0."
b11010 d
0x
0E
b10101 #
b10101 /
b10101 4
1&"
1G
1F
1\
0>
0]
b10101 %
b10101 )
b10101 .
1*
1!"
1w
1o
1j
b11001 (
b11001 5
1/"
b10100 2
b10100 1
1'
#540000000000
0'
#550000000000
1."
b11011 d
1x
b10111 #
b10111 /
b10111 4
1)"
0G
0\
07
1]
0_
1'"
1""
1p
1k
1h
0!"
0w
0o
0j
b10111 %
b10111 )
b10111 .
1+
b10101 2
b10101 1
11"
b11010 5
0/"
b11010 (
1'
#560000000000
0'
#570000000000
12"
1{
00"
0."
b10110 #
b10110 /
b10110 4
0&"
0y
0D
b11100 d
0x
18
1U
1G
1\
0V
0]
b10110 %
b10110 )
b10110 .
0*
1!"
1w
1o
1j
b11011 (
b11011 5
1/"
b10111 2
b10111 1
1'
#580000000000
0'
#590000000000
1."
00"
1x
b10010 #
b10010 /
b10010 4
0,"
b11101 d
0y
1E
08
0G
1S
0U
0F
0\
0T
1>
1V
1]
0^
1_
1+"
1("
1z
1r
1l
1i
0'"
0""
0p
0k
0h
0!"
0w
0o
0j
b10010 %
b10010 )
b10010 .
0,
b10110 2
b10110 1
13"
01"
b11100 5
0/"
b11100 (
1'
#600000000000
0'
#610000000000
10"
1y
0."
b11110 d
0x
0E
b10011 #
b10011 /
b10011 4
1&"
1G
1F
1\
0>
0]
b10011 %
b10011 )
b10011 .
1*
1!"
1w
1o
1j
b11101 (
b11101 5
1/"
b10010 2
b10010 1
1'
#620000000000
0'
#630000000000
1."
b11111 d
1x
b10001 #
b10001 /
b10001 4
0)"
0G
1[
0\
0Z
1]
0_
1'"
1""
1p
1k
1h
0!"
0w
0o
0j
b10001 %
b10001 )
b10001 .
0+
b10011 2
b10011 1
11"
b11110 5
0/"
b11110 (
1'
#640000000000
0'
#650000000000
18"
b1 c
1u
06"
0L
0~
1M
1?
04"
02"
0P
0|
0{
1R
1Q
1C
00"
0."
b10000 #
b10000 /
b10000 4
0&"
0y
b0 d
0x
0Y
18
1U
1G
1\
0V
0]
b10000 %
b10000 )
b10000 .
0*
1!"
1w
1o
1j
b11111 (
b11111 5
1/"
b10001 2
b10001 1
1'
#660000000000
0'
#670000000000
0:"
1A
b1 c
0v
0C
0B
1."
1I
04"
00"
1x
0|
1@
b1 d
0y
1D
1E
1Y
0J
0?
0Q
08
0G
0W
0R
0S
0[
0U
0F
0\
1N
1P
1=
1X
16
1T
17
1Z
1>
1V
1]
0a
1b
1^
1_
1t
1f
b0 #
b0 /
b0 4
0$"
0}
0s
0n
0*"
0#"
0q
0m
0e
0+"
0("
0z
0r
0l
0i
0'"
0""
0p
0k
0h
0!"
0w
0o
0j
b0 %
b0 )
b0 .
b10000 2
b10000 1
b1 3
19"
07"
05"
03"
01"
b0 5
0/"
b0 (
1'
#680000000000
0'
#690000000000
10"
1y
0."
b10 d
0x
0E
b1 #
b1 /
b1 4
1&"
1G
1F
1\
0>
0]
b1 %
b1 )
b1 .
1*
1!"
1w
1o
1j
b1 (
b1 5
1/"
b0 2
b0 1
1'
#700000000000
0'
#710000000000
1."
b11 d
1x
b11 #
b11 /
b11 4
1)"
0G
0\
07
1]
0_
1'"
1""
1p
1k
1h
0!"
0w
0o
0j
b11 %
b11 )
b11 .
1+
b1 2
b1 1
11"
b10 5
0/"
b10 (
1'
#720000000000
0'
#730000000000
12"
1{
00"
0."
b10 #
b10 /
b10 4
0&"
0y
0D
b100 d
0x
18
1U
1G
1\
0V
0]
b10 %
b10 )
b10 .
0*
1!"
1w
1o
1j
b11 (
b11 5
1/"
b11 2
b11 1
1'
#740000000000
0'
#750000000000
1."
00"
1x
b101 d
0y
1E
b110 #
b110 /
b110 4
1,"
08
0G
0U
0F
0\
06
1>
1V
1]
0^
1_
1+"
1("
1z
1r
1l
1i
0'"
0""
0p
0k
0h
0!"
0w
0o
0j
b110 %
b110 )
b110 .
1,
b10 2
b10 1
13"
01"
b100 5
0/"
b100 (
1'
#760000000000
0'
#770000000000
10"
1y
0."
b110 d
0x
0E
b111 #
b111 /
b111 4
1&"
1G
1F
1\
0>
0]
b111 %
b111 )
b111 .
1*
1!"
1w
1o
1j
b101 (
b101 5
1/"
b110 2
b110 1
1'
#780000000000
0'
#790000000000
1."
b111 d
1x
b101 #
b101 /
b101 4
0)"
0G
1[
0\
0Z
1]
0_
1'"
1""
1p
1k
1h
0!"
0w
0o
0j
b101 %
b101 )
b101 .
0+
b111 2
b111 1
11"
b110 5
0/"
b110 (
1'
#800000000000
0'
#810000000000
14"
1|
02"
0{
0A
1C
1B
00"
0."
b100 #
b100 /
b100 4
0&"
0y
b1000 d
0x
0Y
18
1U
1G
1\
0V
0]
b100 %
b100 )
b100 .
0*
1!"
1w
1o
1j
b111 (
b111 5
1/"
b101 2
b101 1
1'
#820000000000
0'
#830000000000
06"
0~
0C
1."
14"
00"
1x
1|
1@
b1001 d
0y
1D
1E
1Y
b1100 #
b1100 /
b1100 4
1-"
08
0G
0R
0[
0U
0F
0\
0=
17
1Z
1>
1V
1]
0b
1^
1_
1*"
1#"
1q
1m
1e
0+"
0("
0z
0r
0l
0i
0'"
0""
0p
0k
0h
0!"
0w
0o
0j
b1100 %
b1100 )
b1100 .
1-
b100 2
b100 1
15"
03"
01"
b1000 5
0/"
b1000 (
1'
#840000000000
0'
#850000000000
10"
1y
0."
b1010 d
0x
0E
b1101 #
b1101 /
b1101 4
1&"
1G
1F
1\
0>
0]
b1101 %
b1101 )
b1101 .
1*
1!"
1w
1o
1j
b1001 (
b1001 5
1/"
b1100 2
b1100 1
1'
#860000000000
0'
#870000000000
1."
b1011 d
1x
b1111 #
b1111 /
b1111 4
1)"
0G
0\
07
1]
0_
1'"
1""
1p
1k
1h
0!"
0w
0o
0j
b1111 %
b1111 )
b1111 .
1+
b1101 2
b1101 1
11"
b1010 5
0/"
b1010 (
1'
#880000000000
0'
#890000000000
12"
1{
00"
0."
b1110 #
b1110 /
b1110 4
0&"
0y
0D
b1100 d
0x
18
1U
1G
1\
0V
0]
b1110 %
b1110 )
b1110 .
0*
1!"
1w
1o
1j
b1011 (
b1011 5
1/"
b1111 2
b1111 1
1'
#900000000000
0'
#910000000000
1."
00"
1x
b1010 #
b1010 /
b1010 4
0,"
b1101 d
0y
1E
08
0G
1S
0U
0F
0\
0T
1>
1V
1]
0^
1_
1+"
1("
1z
1r
1l
1i
0'"
0""
0p
0k
0h
0!"
0w
0o
0j
b1010 %
b1010 )
b1010 .
0,
b1110 2
b1110 1
13"
01"
b1100 5
0/"
b1100 (
1'
#920000000000
0'
#930000000000
10"
1y
0."
b1110 d
0x
0E
b1011 #
b1011 /
b1011 4
1&"
1G
1F
1\
0>
0]
b1011 %
b1011 )
b1011 .
1*
1!"
1w
1o
1j
b1101 (
b1101 5
1/"
b1010 2
b1010 1
1'
#940000000000
0'
#950000000000
1."
b1111 d
1x
b1001 #
b1001 /
b1001 4
0)"
0G
1[
0\
0Z
1]
0_
1'"
1""
1p
1k
1h
0!"
0w
0o
0j
b1001 %
b1001 )
b1001 .
0+
b1011 2
b1011 1
11"
b1110 5
0/"
b1110 (
1'
#960000000000
0'
#970000000000
16"
1~
04"
02"
0|
0@
0{
1R
1C
00"
0."
b1000 #
b1000 /
b1000 4
0&"
0y
b10000 d
0x
0Y
18
1U
1G
1\
0V
0]
b1000 %
b1000 )
b1000 .
0*
1!"
1w
1o
1j
b1111 (
b1111 5
1/"
b1001 2
b1001 1
1'
#980000000000
0'
#990000000000
1A
18"
16"
0C
0B
1."
b1 c
1u
1~
04"
00"
1x
0|
b10001 d
0y
1D
1E
1Y
0O
0?
08
0G
0R
0S
0[
0U
0F
0\
1P
16
1T
17
1Z
1>
1V
1]
1b
1^
1_
b11000 #
b11000 /
b11000 4
1$"
1}
1s
1n
0*"
0#"
0q
0m
0e
0+"
0("
0z
0r
0l
0i
0'"
0""
0p
0k
0h
0!"
0w
0o
0j
b11000 %
b11000 )
b11000 .
b1000 2
b1000 1
17"
05"
03"
01"
b10000 5
0/"
b10000 (
1'
#1000000000000
0'
#1010000000000
10"
1y
0."
b10010 d
0x
0E
b11001 #
b11001 /
b11001 4
1&"
1G
1F
1\
0>
0]
b11001 %
b11001 )
b11001 .
1*
1!"
1w
1o
1j
b10001 (
b10001 5
1/"
b11000 2
b11000 1
1'
#1020000000000
0'
#1030000000000
1."
b10011 d
1x
b11011 #
b11011 /
b11011 4
1)"
0G
0\
07
1]
0_
1'"
1""
1p
1k
1h
0!"
0w
0o
0j
b11011 %
b11011 )
b11011 .
1+
b11001 2
b11001 1
11"
b10010 5
0/"
b10010 (
1'
#1040000000000
0'
#1050000000000
12"
1{
00"
0."
b11010 #
b11010 /
b11010 4
0&"
0y
0D
b10100 d
0x
18
1U
1G
1\
0V
0]
b11010 %
b11010 )
b11010 .
0*
1!"
1w
1o
1j
b10011 (
b10011 5
1/"
b11011 2
b11011 1
1'
#1060000000000
0'
#1070000000000
1."
00"
1x
b10101 d
0y
1E
b11110 #
b11110 /
b11110 4
1,"
08
0G
0U
0F
0\
06
1>
1V
1]
0^
1_
1+"
1("
1z
1r
1l
1i
0'"
0""
0p
0k
0h
0!"
0w
0o
0j
b11110 %
b11110 )
b11110 .
1,
b11010 2
b11010 1
13"
01"
b10100 5
0/"
b10100 (
1'
#1080000000000
0'
#1090000000000
10"
1y
0."
b10110 d
0x
0E
b11111 #
b11111 /
b11111 4
1&"
1G
1F
1\
0>
0]
b11111 %
b11111 )
b11111 .
1*
1!"
1w
1o
1j
b10101 (
b10101 5
1/"
b11110 2
b11110 1
1'
#1100000000000
0'
#1110000000000
1."
b10111 d
1x
b11101 #
b11101 /
b11101 4
0)"
0G
1[
0\
0Z
1]
0_
1'"
1""
1p
1k
1h
0!"
0w
0o
0j
b11101 %
b11101 )
b11101 .
0+
b11111 2
b11111 1
11"
b10110 5
0/"
b10110 (
1'
#1120000000000
0'
#1130000000000
14"
1|
02"
0{
0A
1C
1B
00"
0."
b11100 #
b11100 /
b11100 4
0&"
0y
b11000 d
0x
0Y
18
1U
1G
1\
0V
0]
b11100 %
b11100 )
b11100 .
0*
1!"
1w
1o
1j
b10111 (
b10111 5
1/"
b11101 2
b11101 1
1'
#1140000000000
0'
