Proyecto1_Digitales_II/Serial_Paralelo/Mux.vcd
$date
	Wed Sep 30 00:02:09 2020
$end
$version
	Icarus Verilog
$end
$timescale
	100ps
$end
$scope module BUF $end
$var wire 1 ! A $end
$var wire 1 " Y $end
$upscope $end
$scope module BancoPrueba_Mux $end
$var wire 1 # valid_SP $end
$var wire 1 $ reset_L $end
$var wire 8 % data_out_SP [7:0] $end
$var wire 1 & data_in_SP $end
$var wire 1 ' clk_32f $end
$var wire 1 ( active $end
$scope module Serial_Paralelo_instancia $end
$var wire 1 $ reset_L $end
$var wire 1 & data_in_SP $end
$var wire 1 ' clk_32f $end
$var reg 1 ( active $end
$var reg 2 ) cont [1:0] $end
$var reg 8 * data_out_SP [7:0] $end
$var reg 2 + flag [1:0] $end
$var reg 1 , flag2 $end
$var reg 3 - i [2:0] $end
$var reg 8 . inic [7:0] $end
$var reg 1 # valid_SP $end
$upscope $end
$scope module probador_Instanciado $end
$var wire 1 ( active $end
$var wire 8 / data_out_SP [7:0] $end
$var wire 1 # valid_SP $end
$var reg 1 ' clk_32f $end
$var reg 1 & data_in_SP $end
$var reg 3 0 i [2:0] $end
$var reg 8 1 prueba [7:0] $end
$var reg 1 $ reset_L $end
$upscope $end
$upscope $end
$scope module DFF $end
$var wire 1 2 C $end
$var wire 1 3 D $end
$var reg 1 4 Q $end
$upscope $end
$scope module DFFSR $end
$var wire 1 5 C $end
$var wire 1 6 D $end
$var wire 1 7 R $end
$var wire 1 8 S $end
$var reg 1 9 Q $end
$upscope $end
$scope module NAND $end
$var wire 1 : A $end
$var wire 1 ; B $end
$var wire 1 < Y $end
$upscope $end
$scope module NOR $end
$var wire 1 = A $end
$var wire 1 > B $end
$var wire 1 ? Y $end
$upscope $end
$scope module NOT $end
$var wire 1 @ A $end
$var wire 1 A Y $end
$upscope $end
$enddefinitions $end
#0
$dumpvars
zA
z@
x?
z>
z=
x<
z;
z:
x9
z8
z7
z6
z5
x4
z3
z2
b10111100 1
b111 0
bx /
bx .
bx -
x,
bx +
bx *
bx )
x(
0'
0&
bx %
0$
x#
z"
z!
$end
#10000000000
0,
b11 +
b111 -
b11 )
0(
b0 %
b0 *
b0 /
b0 .
0#
1'
#20000000000
0'
#30000000000
1'
#40000000000
0'
#50000000000
1,
b110 0
1&
1'
1$
#60000000000
0'
#70000000000
b101 0
0&
b110 -
b0 .
b1 %
b1 *
b1 /
1'
#80000000000
0'
#90000000000
b101 -
b0 %
b0 *
b0 /
b100 0
1&
1'
#100000000000
0'
#110000000000
b11 0
b100 -
b0 .
b1 %
b1 *
b1 /
1'
#120000000000
0'
#130000000000
b11 -
b0 .
b10 0
1'
#140000000000
0'
#150000000000
b1 0
b10 -
b0 .
1'
#160000000000
0'
#170000000000
b1 -
b0 .
b0 0
0&
1'
#180000000000
0'
#190000000000
b111 0
b0 -
b0 %
b0 *
b0 /
1'
#200000000000
0'
#210000000000
b111 -
b110 0
1&
1#
1'
#220000000000
0'
#230000000000
b101 0
0&
b110 -
b0 .
b1 %
b1 *
b1 /
0#
1'
#240000000000
0'
#250000000000
b101 -
b0 %
b0 *
b0 /
b100 0
1&
1'
#260000000000
0'
#270000000000
b11 0
b100 -
b0 .
b1 %
b1 *
b1 /
1'
#280000000000
0'
#290000000000
b11 -
b0 .
b10 0
1'
#300000000000
0'
#310000000000
b1 0
b10 -
b0 .
1'
#320000000000
0'
#330000000000
b1 -
b0 .
b0 0
0&
1'
#340000000000
0'
#350000000000
b111 0
b0 -
b0 %
b0 *
b0 /
1'
#360000000000
0'
#370000000000
b111 -
b110 0
1&
1#
1'
#380000000000
0'
#390000000000
b101 0
0&
b110 -
b0 .
b1 %
b1 *
b1 /
0#
1'
#400000000000
0'
#410000000000
b101 -
b0 %
b0 *
b0 /
b100 0
1&
1'
#420000000000
0'
#430000000000
b11 0
b100 -
b0 .
b1 %
b1 *
b1 /
1'
#440000000000
0'
#450000000000
b11 -
b0 .
b10 0
1'
#460000000000
0'
#470000000000
b1 0
b10 -
b0 .
1'
#480000000000
0'
#490000000000
b1 -
b0 .
b0 0
0&
1'
#500000000000
0'
#510000000000
b111 0
b0 -
b0 %
b0 *
b0 /
1'
#520000000000
0'
#530000000000
b111 -
b110 0
1&
1#
1'
#540000000000
0'
#550000000000
b101 0
0&
b110 -
b0 .
b1 %
b1 *
b1 /
0#
1'
#560000000000
0'
#570000000000
b101 -
b0 %
b0 *
b0 /
b100 0
1&
1'
#580000000000
0'
#590000000000
b11 0
b100 -
b0 .
b1 %
b1 *
b1 /
1'
#600000000000
0'
#610000000000
b11 -
b0 .
b10 0
1'
#620000000000
0'
#630000000000
b1 0
b10 -
b0 .
1'
#640000000000
0'
#650000000000
b1 -
b0 .
b0 0
0&
1'
#660000000000
0'
#670000000000
b111 0
b0 -
b0 %
b0 *
b0 /
1'
#680000000000
0'
#690000000000
b111 -
1#
1'
#700000000000
0'
#710000000000
b110 -
0#
1'
#720000000000
0'
#730000000000
b101 -
1'
#740000000000
0'
#750000000000
b100 -
1'
#760000000000
0'
#770000000000
b11 -
1'
#780000000000
0'
#790000000000
b10 -
1'
#800000000000
0'
#810000000000
b1 -
1'
#820000000000
0'
#830000000000
b0 -
1'
#840000000000
0'
#850000000000
b111 -
1#
1'
#860000000000
0'
#870000000000
b110 -
0#
1'
#880000000000
0'
#890000000000
b101 -
1'
#900000000000
0'
#910000000000
b100 -
1'
#920000000000
0'
#930000000000
b11 -
1'
#940000000000
0'
#950000000000
b10 -
1'
#960000000000
0'
#970000000000
b1 -
1'
#980000000000
0'
#990000000000
b0 -
1'
#1000000000000
0'
#1010000000000
b111 -
1#
1'
#1020000000000
0'
#1030000000000
b110 -
b0 .
b1 %
b1 *
b1 /
0#
1'
1&
#1040000000000
0'
#1050000000000
b101 -
b0 %
b0 *
b0 /
1'
0&
#1060000000000
0'
#1070000000000
b100 -
b0 .
b1 %
b1 *
b1 /
1'
1&
#1080000000000
0'
#1090000000000
b11 -
b0 .
1'
#1100000000000
0'
#1110000000000
b10 -
b0 .
1'
#1120000000000
0'
#1130000000000
b1 -
b0 .
1'
#1140000000000
0'
#1150000000000
b0 -
b0 .
1'
#1160000000000
0'
#1170000000000
b0 %
b0 *
b0 /
b111 -
b0 .
1#
1'
#1180000000000
0'
#1190000000000
b110 -
b0 .
b1 %
b1 *
b1 /
0#
1'
#1200000000000
0'
#1210000000000
b101 -
b0 %
b0 *
b0 /
1'
0&
#1220000000000
0'
#1230000000000
b100 -
b0 .
b1 %
b1 *
b1 /
1'
1&
